
{
	"$id" : "ws.nzen.game.adventure.mhc.client.key",
	"$schema" : "http://json-schema.org/schema#",

	"type" : "object",
	"properties" :
	{
		"msgType" :
		{
			"type" : "string",
			"const" : "KEY"
		},
		"code" :
		{
			"type" : "string"
		},
		"pressing" :
		{
			"type" : "boolean"
		}
	}
}
